<?xml version="1.0" encoding="UTF-8"?>
<kml xmlns="http://www.opengis.net/kml/2.2" xmlns:gx="http://www.google.com/kml/ext/2.2">
    <Document id="221817">
        <Placemark id="221819">
            <name>Syngenta</name>
            <Polygon id="221818">
                <outerBoundaryIs>
                    <LinearRing id="221820">
                        <coordinates>-91.73916775520671,41.38846710923477,0.0 -91.73916157454775,41.38846710923477,0.0 -91.73916157454775,41.38844233907779,0.0 -91.73916775520671,41.38844233907779,0.0 -91.73916775520671,41.38846710923477,0.0</coordinates>
                    </LinearRing>
                </outerBoundaryIs>
            </Polygon>
        </Placemark>
        <Placemark id="221823">
            <name>Syngenta</name>
            <Polygon id="221822">
                <outerBoundaryIs>
                    <LinearRing id="221824">
                        <coordinates>-91.73856601552119,41.38838733476129,0.0 -91.73856008168579,41.38838733476129,0.0 -91.73856008168579,41.38836256727858,0.0 -91.73856601552119,41.38836256727858,0.0 -91.73856601552119,41.38838733476129,0.0</coordinates>
                    </LinearRing>
                </outerBoundaryIs>
            </Polygon>
        </Placemark>
        <Placemark id="221827">
            <name>Syngenta</name>
            <Polygon id="221826">
                <outerBoundaryIs>
                    <LinearRing id="221828">
                        <coordinates>-91.73862912540172,41.38841440069365,0.0 -91.73862294495245,41.38841440069365,0.0 -91.73862294495245,41.388389630510474,0.0 -91.73862912540172,41.388389630510474,0.0 -91.73862912540172,41.38841440069365,0.0</coordinates>
                    </LinearRing>
                </outerBoundaryIs>
            </Polygon>
        </Placemark>
        <Placemark id="221831">
            <name>Syngenta</name>
            <Polygon id="221830">
                <outerBoundaryIs>
                    <LinearRing id="221832">
                        <coordinates>-91.73862019001336,41.388468350892346,0.0 -91.73861400956291,41.388468350892346,0.0 -91.73861400956291,41.388443580708895,0.0 -91.73862019001336,41.388443580708895,0.0 -91.73862019001336,41.388468350892346,0.0</coordinates>
                    </LinearRing>
                </outerBoundaryIs>
            </Polygon>
        </Placemark>
        <Placemark id="221835">
            <name>Syngenta</name>
            <Polygon id="221834">
                <outerBoundaryIs>
                    <LinearRing id="221836">
                        <coordinates>-91.7387097811222,41.3884141705303,0.0 -91.73870360064222,41.3884141705303,0.0 -91.73870360064222,41.38838940035103,0.0 -91.7387097811222,41.38838940035103,0.0 -91.7387097811222,41.3884141705303,0.0</coordinates>
                    </LinearRing>
                </outerBoundaryIs>
            </Polygon>
        </Placemark>
        <Placemark id="221839">
            <name>Syngenta</name>
            <Polygon id="221838">
                <outerBoundaryIs>
                    <LinearRing id="221840">
                        <coordinates>-91.73926254361143,41.38952255136463,0.0 -91.73925636641431,41.38952255136463,0.0 -91.73925636641431,41.38949759552211,0.0 -91.73926254361143,41.38949759552211,0.0 -91.73926254361143,41.38952255136463,0.0</coordinates>
                    </LinearRing>
                </outerBoundaryIs>
            </Polygon>
        </Placemark>
        <Placemark id="221843">
            <name>Syngenta</name>
            <Polygon id="221842">
                <outerBoundaryIs>
                    <LinearRing id="221844">
                        <coordinates>-91.73813883277185,41.38949704532101,0.0 -91.73813265241711,41.38949704532101,0.0 -91.73813265241711,41.389472275117235,0.0 -91.73813883277185,41.389472275117235,0.0 -91.73813883277185,41.38949704532101,0.0</coordinates>
                    </LinearRing>
                </outerBoundaryIs>
            </Polygon>
        </Placemark>
        <Placemark id="221847">
            <name>Syngenta</name>
            <Polygon id="221846">
                <outerBoundaryIs>
                    <LinearRing id="221848">
                        <coordinates>-91.73810285073833,41.3894700909311,0.0 -91.73809667039957,41.3894700909311,0.0 -91.73809667039957,41.38944532072551,0.0 -91.73810285073833,41.38944532072551,0.0 -91.73810285073833,41.3894700909311,0.0</coordinates>
                    </LinearRing>
                </outerBoundaryIs>
            </Polygon>
        </Placemark>
        <Placemark id="221851">
            <name>Syngenta</name>
            <Polygon id="221850">
                <outerBoundaryIs>
                    <LinearRing id="221852">
                        <coordinates>-91.7390967801881,41.390608384146994,0.0 -91.73909059937363,41.390608384146994,0.0 -91.73909059937363,41.39058361399273,0.0 -91.7390967801881,41.39058361399273,0.0 -91.7390967801881,41.390608384146994,0.0</coordinates>
                    </LinearRing>
                </outerBoundaryIs>
            </Polygon>
        </Placemark>
        <Placemark id="221855">
            <name>Syngenta</name>
            <Polygon id="221854">
                <outerBoundaryIs>
                    <LinearRing id="221856">
                        <coordinates>-91.73928129707417,41.389688058771966,0.0 -91.73927511626786,41.389688058771966,0.0 -91.73927511626786,41.38966328862398,0.0 -91.73928129707417,41.38966328862398,0.0 -91.73928129707417,41.389688058771966,0.0</coordinates>
                    </LinearRing>
                </outerBoundaryIs>
            </Polygon>
        </Placemark>
        <Placemark id="221859">
            <name>Syngenta</name>
            <Polygon id="221858">
                <outerBoundaryIs>
                    <LinearRing id="221860">
                        <coordinates>-91.73858420833392,41.388441396653505,0.0 -91.73857802789948,41.388441396653505,0.0 -91.73857802789948,41.38841662646823,0.0 -91.73858420833392,41.38841662646823,0.0 -91.73858420833392,41.388441396653505,0.0</coordinates>
                    </LinearRing>
                </outerBoundaryIs>
            </Polygon>
        </Placemark>
        <Placemark id="221863">
            <name>Syngenta</name>
            <Polygon id="221862">
                <outerBoundaryIs>
                    <LinearRing id="221864">
                        <coordinates>-91.73869158821194,41.388360108656336,0.0 -91.7386854077435,41.388360108656336,0.0 -91.7386854077435,41.38833533847602,0.0 -91.73869158821194,41.38833533847602,0.0 -91.73869158821194,41.388360108656336,0.0</coordinates>
                    </LinearRing>
                </outerBoundaryIs>
            </Polygon>
        </Placemark>
        <Placemark id="221867">
            <name>Syngenta</name>
            <Polygon id="221866">
                <outerBoundaryIs>
                    <LinearRing id="221868">
                        <coordinates>-91.738629098085,41.38844133160857,0.0 -91.73862291763346,41.38844133160857,0.0 -91.73862291763346,41.38841656142547,0.0 -91.738629098085,41.38841656142547,0.0 -91.738629098085,41.38844133160857,0.0</coordinates>
                    </LinearRing>
                </outerBoundaryIs>
            </Polygon>
        </Placemark>
        <Placemark id="221871">
            <name>Syngenta</name>
            <Polygon id="221870">
                <outerBoundaryIs>
                    <LinearRing id="221872">
                        <coordinates>-91.73862931376631,41.388468450919966,0.0 -91.73862313331237,41.388468450919966,0.0 -91.73862313331237,41.38844368073696,0.0 -91.73862931376631,41.38844368073696,0.0 -91.73862931376631,41.388468450919966,0.0</coordinates>
                    </LinearRing>
                </outerBoundaryIs>
            </Polygon>
        </Placemark>
        <Placemark id="221875">
            <name>Syngenta</name>
            <Polygon id="221874">
                <outerBoundaryIs>
                    <LinearRing id="221876">
                        <coordinates>-91.73888317732619,41.38909009455011,0.0 -91.73887699672252,41.38909009455011,0.0 -91.73887699672252,41.389065324381164,0.0 -91.73888317732619,41.389065324381164,0.0 -91.73888317732619,41.38909009455011,0.0</coordinates>
                    </LinearRing>
                </outerBoundaryIs>
            </Polygon>
        </Placemark>
        <Placemark id="221879">
            <name>Syngenta</name>
            <Polygon id="221878">
                <outerBoundaryIs>
                    <LinearRing id="221880">
                        <coordinates>-91.73785710847312,41.3884161494691,0.0 -91.7378511749054,41.3884161494691,0.0 -91.7378511749054,41.38839138195371,0.0 -91.73785710847312,41.38839138195371,0.0 -91.73785710847312,41.3884161494691,0.0</coordinates>
                    </LinearRing>
                </outerBoundaryIs>
            </Polygon>
        </Placemark>
        <Placemark id="221883">
            <name>Syngenta</name>
            <Polygon id="221882">
                <outerBoundaryIs>
                    <LinearRing id="221884">
                        <coordinates>-91.73864729096421,41.38849539349126,0.0 -91.73864111050112,41.38849539349126,0.0 -91.73864111050112,41.38847062330919,0.0 -91.73864729096421,41.38847062330919,0.0 -91.73864729096421,41.38849539349126,0.0</coordinates>
                    </LinearRing>
                </outerBoundaryIs>
            </Polygon>
        </Placemark>
        <Placemark id="221887">
            <name>Syngenta</name>
            <Polygon id="221886">
                <outerBoundaryIs>
                    <LinearRing id="221888">
                        <coordinates>-91.73927145516103,41.389495346341064,0.0 -91.7392652743749,41.389495346341064,0.0 -91.7392652743749,41.389470576192046,0.0 -91.73927145516103,41.389470576192046,0.0 -91.73927145516103,41.389495346341064,0.0</coordinates>
                    </LinearRing>
                </outerBoundaryIs>
            </Polygon>
        </Placemark>
        <Placemark id="221891">
            <name>Syngenta</name>
            <Polygon id="221890">
                <outerBoundaryIs>
                    <LinearRing id="221892">
                        <coordinates>-91.7392621423915,41.38944119613905,0.0 -91.73925596161352,41.38944119613905,0.0 -91.73925596161352,41.389416425989424,0.0 -91.7392621423915,41.389416425989424,0.0 -91.7392621423915,41.38944119613905,0.0</coordinates>
                    </LinearRing>
                </outerBoundaryIs>
            </Polygon>
        </Placemark>
        <Placemark id="221895">
            <name>Syngenta</name>
            <Polygon id="221894">
                <outerBoundaryIs>
                    <LinearRing id="221896">
                        <coordinates>-91.73922634516873,41.38946847801045,0.0 -91.73922016799011,41.38946847801045,0.0 -91.73922016799011,41.389443522166005,0.0 -91.73922634516873,41.389443522166005,0.0 -91.73922634516873,41.38946847801045,0.0</coordinates>
                    </LinearRing>
                </outerBoundaryIs>
            </Polygon>
        </Placemark>
        <Placemark id="221899">
            <name>Syngenta</name>
            <Polygon id="221898">
                <outerBoundaryIs>
                    <LinearRing id="221900">
                        <coordinates>-91.73927123563215,41.389468412724966,0.0 -91.7392650584363,41.389468412724966,0.0 -91.7392650584363,41.38944345688268,0.0 -91.73927123563215,41.38944345688268,0.0 -91.73927123563215,41.389468412724966,0.0</coordinates>
                    </LinearRing>
                </outerBoundaryIs>
            </Polygon>
        </Placemark>
        <Placemark id="221903">
            <name>Syngenta</name>
            <Polygon id="221902">
                <outerBoundaryIs>
                    <LinearRing id="221904">
                        <coordinates>-91.73897003013457,41.38838637739911,0.0 -91.7389638495578,41.38838637739911,0.0 -91.7389638495578,41.38836160723233,0.0 -91.73897003013457,41.38836160723233,0.0 -91.73897003013457,41.38838637739911,0.0</coordinates>
                    </LinearRing>
                </outerBoundaryIs>
            </Polygon>
        </Placemark>
        <Placemark id="221907">
            <name>Syngenta</name>
            <Polygon id="221906">
                <outerBoundaryIs>
                    <LinearRing id="221908">
                        <coordinates>-91.73927167110192,41.38952246565023,0.0 -91.7392654903134,41.38952246565023,0.0 -91.7392654903134,41.389497695501305,0.0 -91.73927167110192,41.389497695501305,0.0 -91.73927167110192,41.38952246565023,0.0</coordinates>
                    </LinearRing>
                </outerBoundaryIs>
            </Polygon>
        </Placemark>
        <Placemark id="221911">
            <name>Syngenta</name>
            <Polygon id="221910">
                <outerBoundaryIs>
                    <LinearRing id="221912">
                        <coordinates>-91.73921765311084,41.389522616646204,0.0 -91.73921147593096,41.389522616646204,0.0 -91.73921147593096,41.3894976608015,0.0 -91.73921765311084,41.3894976608015,0.0 -91.73921765311084,41.389522616646204,0.0</coordinates>
                    </LinearRing>
                </outerBoundaryIs>
            </Polygon>
        </Placemark>
        <Placemark id="221915">
            <name>Syngenta</name>
            <Polygon id="221914">
                <outerBoundaryIs>
                    <LinearRing id="221916">
                        <coordinates>-91.7380186664853,41.388415692873245,0.0 -91.73801272926474,41.388415692873245,0.0 -91.73801272926474,41.38839111105844,0.0 -91.7380186664853,41.38839111105844,0.0 -91.7380186664853,41.388415692873245,0.0</coordinates>
                    </LinearRing>
                </outerBoundaryIs>
            </Polygon>
        </Placemark>
        <Placemark id="221919">
            <name>Syngenta</name>
            <Polygon id="221918">
                <outerBoundaryIs>
                    <LinearRing id="221920">
                        <coordinates>-91.73927238550031,41.3897152637951,0.0 -91.73926620469507,41.3897152637951,0.0 -91.73926620469507,41.38969049364677,0.0 -91.73927238550031,41.38969049364677,0.0 -91.73927238550031,41.3897152637951,0.0</coordinates>
                    </LinearRing>
                </outerBoundaryIs>
            </Polygon>
        </Placemark>
        <Placemark id="221923">
            <name>Syngenta</name>
            <Polygon id="221922">
                <outerBoundaryIs>
                    <LinearRing id="221924">
                        <coordinates>-91.73857511192392,41.388414365707774,0.0 -91.73856893149524,41.388414365707774,0.0 -91.73856893149524,41.38838959552198,0.0 -91.73857511192392,41.38838959552198,0.0 -91.73857511192392,41.388414365707774,0.0</coordinates>
                    </LinearRing>
                </outerBoundaryIs>
            </Polygon>
        </Placemark>
        <Placemark id="221927">
            <name>Syngenta</name>
            <Polygon id="221926">
                <outerBoundaryIs>
                    <LinearRing id="221928">
                        <coordinates>-91.7381030697848,41.389497024542585,0.0 -91.7380968894437,41.389497024542585,0.0 -91.7380968894437,41.38947225433709,0.0 -91.7381030697848,41.38947225433709,0.0 -91.7381030697848,41.389497024542585,0.0</coordinates>
                    </LinearRing>
                </outerBoundaryIs>
            </Polygon>
        </Placemark>
        <Placemark id="221931">
            <name>Syngenta</name>
            <Polygon id="221930">
                <outerBoundaryIs>
                    <LinearRing id="221932">
                        <coordinates>-91.73921746786563,41.38946838073045,0.0 -91.73921128710236,41.38946838073045,0.0 -91.73921128710236,41.389443610578745,0.0 -91.73921746786563,41.389443610578745,0.0 -91.73921746786563,41.38946838073045,0.0</coordinates>
                    </LinearRing>
                </outerBoundaryIs>
            </Polygon>
        </Placemark>
        <Placemark id="221935">
            <name>Syngenta</name>
            <Polygon id="221934">
                <outerBoundaryIs>
                    <LinearRing id="221936">
                        <coordinates>-91.73809397343884,41.389469993564404,0.0 -91.73808779310349,41.389469993564404,0.0 -91.73808779310349,41.38944522335839,0.0 -91.73809397343884,41.38944522335839,0.0 -91.73809397343884,41.389469993564404,0.0</coordinates>
                    </LinearRing>
                </outerBoundaryIs>
            </Polygon>
        </Placemark>
        <Placemark id="221939">
            <name>Syngenta</name>
            <Polygon id="221938">
                <outerBoundaryIs>
                    <LinearRing id="221940">
                        <coordinates>-91.73928945995472,41.38949535790108,0.0 -91.73928327916171,41.38949535790108,0.0 -91.73928327916171,41.38947058775294,0.0 -91.73928945995472,41.38947058775294,0.0 -91.73928945995472,41.38949535790108,0.0</coordinates>
                    </LinearRing>
                </outerBoundaryIs>
            </Polygon>
        </Placemark>
        <Placemark id="221943">
            <name>Syngenta</name>
            <Polygon id="221942">
                <outerBoundaryIs>
                    <LinearRing id="221944">
                        <coordinates>-91.73928055200045,41.38952237723299,0.0 -91.73927437120855,41.38952237723299,0.0 -91.73927437120855,41.38949760708448,0.0 -91.73928055200045,41.38949760708448,0.0 -91.73928055200045,41.38952237723299,0.0</coordinates>
                    </LinearRing>
                </outerBoundaryIs>
            </Polygon>
        </Placemark>
        <Placemark id="221947">
            <name>Syngenta</name>
            <Polygon id="221946">
                <outerBoundaryIs>
                    <LinearRing id="221948">
                        <coordinates>-91.7392623583289,41.38946831544841,0.0 -91.73925617754853,41.38946831544841,0.0 -91.73925617754853,41.38944354529889,0.0 -91.7392623583289,41.38944354529889,0.0 -91.7392623583289,41.38946831544841,0.0</coordinates>
                    </LinearRing>
                </outerBoundaryIs>
            </Polygon>
        </Placemark>
        <Placemark id="221951">
            <name>Syngenta</name>
            <Polygon id="221950">
                <outerBoundaryIs>
                    <LinearRing id="221952">
                        <coordinates>-91.73807615654457,41.389524032028454,0.0 -91.73806997621139,41.389524032028454,0.0 -91.73806997621139,41.38949926182172,0.0 -91.73807615654457,41.38949926182172,0.0 -91.73807615654457,41.389524032028454,0.0</coordinates>
                    </LinearRing>
                </outerBoundaryIs>
            </Polygon>
        </Placemark>
        <Placemark id="221955">
            <name>Syngenta</name>
            <Polygon id="221954">
                <outerBoundaryIs>
                    <LinearRing id="221956">
                        <coordinates>-91.73809394229865,41.389497110164314,0.0 -91.738087761961,41.389497110164314,0.0 -91.738087761961,41.389472339958374,0.0 -91.73809394229865,41.389472339958374,0.0 -91.73809394229865,41.389497110164314,0.0</coordinates>
                    </LinearRing>
                </outerBoundaryIs>
            </Polygon>
        </Placemark>
        <Placemark id="221959">
            <name>Syngenta</name>
            <Polygon id="221958">
                <outerBoundaryIs>
                    <LinearRing id="221960">
                        <coordinates>-91.73921743719241,41.389495497337265,0.0 -91.73921125642684,41.389495497337265,0.0 -91.73921125642684,41.38947072718563,0.0 -91.73921743719241,41.38947072718563,0.0 -91.73921743719241,41.389495497337265,0.0</coordinates>
                    </LinearRing>
                </outerBoundaryIs>
            </Polygon>
        </Placemark>
    </Document>
</kml>
