<?xml version="1.0" encoding="UTF-8"?>
<kml xmlns="http://www.opengis.net/kml/2.2" xmlns:gx="http://www.google.com/kml/ext/2.2">
    <Document id="221811">
        <Placemark id="221813">
            <name>Syngenta</name>
            <Polygon id="221812">
                <outerBoundaryIs>
                    <LinearRing id="221814">
                        <coordinates>-91.7386289097201,41.388387281382016,0.0 -91.73862272927325,41.388387281382016,0.0 -91.73862272927325,41.38836251119874,0.0 -91.7386289097201,41.38836251119874,0.0 -91.7386289097201,41.388387281382016,0.0</coordinates>
                    </LinearRing>
                </outerBoundaryIs>
            </Polygon>
        </Placemark>
    </Document>
</kml>
